xpm_memory.sv,systemverilog,xil_defaultlib,../../../../../../../../../../../../../../Xilinx/Vivado/2018.2/data/ip/xpm/xpm_memory/hdl/xpm_memory.sv,
xpm_VCOMP.vhd,vhdl,xpm,../../../../../../../../../../../../../../Xilinx/Vivado/2018.2/data/ip/xpm/xpm_VCOMP.vhd,
blk_mem_gen_v8_4.v,verilog,blk_mem_gen_v8_4_1,../../../ipstatic/simulation/blk_mem_gen_v8_4.v,
pmem.v,verilog,xil_defaultlib,../../../../riscv.srcs/sources_1/ip/pmem/sim/pmem.v,
glbl.v,Verilog,xil_defaultlib,glbl.v
