00000000000000000000000000000000
00000000000000000000000000000001
00000000000000000000000000000010
00000000000000000000000000000011
00000000000000000000000000000100
00000000000000000000000000000101
00000000000000000000000000000110
00000000000000000000000000000111
00000000000000000000000000001000
00000000000000000000000000001001
00000000000000000000000000001010
00000000000000000000000000001011
00000000000000000000000000001100
00000000000000000000000000001101
00000000000000000000000000001110
00000000000000000000000000001111
11111111111111111111111111110000
11111111111111111111111111110001
11111111111111111111111111110010
11111111111111111111111111110011
11111111111111111111111111110100
11111111111111111111111111110101
11111111111111111111111111110110
11111111111111111111111111110111
11111111111111111111111111111000
11111111111111111111111111111001
11111111111111111111111111111010
11111111111111111111111111111011
11111111111111111111111111111100
00000000000000000000000000011101
11111111111111111111111111111110
11111111111111111111111111111111
